a,b,c,d,e,f
a,b,c,d,e,f
false,true,false,false,false,false
true,false,false,false,false,false
false,true,false,false,false,false
false,false,false,true,false,false
false,false,false,false,false,true
false,false,false,true,false,false
